-----------------------------------------------------------------
[2022-04-29 09:16:13.081220Z [32m INFO [0m askr_mvps::_::connected]
%{ip: {172, 25, 78, 153}, port: 33080}
[2022-04-29 09:16:18.789797Z [33m WARNING [0m askr_mvps::unknown::error]
Socket closed due unknown error
-----------------------------------------------------------------
[2022-04-29 09:20:08.025455Z [32m INFO [0m connected]
%{ip: {172, 25, 78, 153}, port: 33082}
-----------------------------------------------------------------
[2022-04-29 09:20:54.533105Z [32m INFO [0m connected]
%{ip: {172, 25, 78, 153}, port: 33084}
[2022-04-29 09:20:59.147025Z [33m WARNING [0m error]
Socket closed due unknown error
-----------------------------------------------------------------
[2022-04-29 09:21:43.442878Z [32m INFO [0m connected]
%{ip: {172, 25, 78, 153}, port: 33086}
[2022-04-29 09:21:52.640340Z [33m WARNING [0m error]
Socket closed due unknown error
-----------------------------------------------------------------
[2022-04-29 09:22:11.761660Z [32m INFO [0m connected]
%{ip: {172, 25, 78, 153}, port: 33088}
[2022-04-29 09:22:13.850835Z [32m INFO [0m authenticated]
%{buffer: %LiveTrack.Structures.WialonBuffer{messages: [#Login<status: "1", body: %{imei: "imei", password: "paasword"}>], opts: [log: true, respond: true, validate: false], version: "2.0"}, line: "#L#2.0;imei;paasword;A932\r\n"}
-----------------------------------------------------------------
[2022-04-29 09:23:28.479604Z [32m INFO [0m connected]
%{ip: {172, 25, 78, 153}, port: 33094}
[2022-04-29 09:23:41.998095Z [32m INFO [0m authenticated]
%{buffer: %LiveTrack.Structures.WialonBuffer{messages: [#Login<status: "1", body: %{imei: "imei", password: "paasword"}>], opts: [log: true, respond: true, validate: false], version: "2.0"}, line: "#L#2.0;imei;paasword;A932\r\n"}
-----------------------------------------------------------------
[2022-04-29 09:25:32.136748Z [32m INFO [0m connected]
%{ip: {172, 25, 78, 153}, port: 33102}
[2022-04-29 09:25:43.668421Z [32m INFO [0m authenticated]
%{buffer: %LiveTrack.Structures.WialonBuffer{messages: [#Login<status: "1", body: %{imei: "imei", password: "paasword"}>], opts: [log: true, respond: true, validate: false], version: "2.0"}, line: "#L#2.0;imei;paasword;A932\r\n"}
[2022-04-29 09:25:43.674208Z [33m WARNING [0m error]
Server error

-----------------------------------------------------------------
[2022-04-29 09:26:09.362332Z [32m INFO [0m connected]
%{ip: {172, 25, 78, 153}, port: 33104}
[2022-04-29 09:26:13.856034Z [32m INFO [0m authenticated]
%{buffer: %LiveTrack.Structures.WialonBuffer{messages: [#Login<status: "1", body: %{imei: "imei", password: "paasword"}>], opts: [log: true, respond: true, validate: false], version: "2.0"}, line: "#L#2.0;imei;paasword;A932\r\n"}
[2022-04-29 09:26:13.856536Z [33m WARNING [0m error]
Server error

-----------------------------------------------------------------
[2022-04-29 09:26:30.767836Z [32m INFO [0m connected]
%{ip: {172, 25, 78, 153}, port: 33106}
[2022-04-29 09:26:36.858780Z [32m INFO [0m authenticated]
%{buffer: %LiveTrack.Structures.WialonBuffer{messages: [#Login<status: "1", body: %{imei: "imei", password: "paasword"}>], opts: [log: true, respond: true, validate: false], version: "2.0"}, line: "#L#2.0;imei;paasword;A932\r\n"}
[2022-04-29 09:26:36.859681Z [33m WARNING [0m error]
Server error

-----------------------------------------------------------------
[2022-04-29 09:27:02.511750Z [32m INFO [0m connected]
%{ip: {172, 25, 78, 153}, port: 33116}
[2022-04-29 09:27:08.096474Z [32m INFO [0m authenticated]
%{buffer: %LiveTrack.Structures.WialonBuffer{messages: [#Login<status: "1", body: %{imei: "imei", password: "paasword"}>], opts: [log: true, respond: true, validate: false], version: "2.0"}, line: "#L#2.0;imei;paasword;A932\r\n"}
[2022-04-29 09:27:08.112978Z [33m WARNING [0m error]
Server error

-----------------------------------------------------------------
[2022-04-29 09:28:22.422940Z [32m INFO [0m connected]
%{ip: {172, 25, 78, 153}, port: 33124}
[2022-04-29 09:28:29.002350Z [32m INFO [0m authenticated]
%{buffer: %LiveTrack.Structures.WialonBuffer{auth: #Login<status: "1", body: %{imei: "imei", password: "paasword"}>, messages: [#Login<status: "1", body: %{imei: "imei", password: "paasword"}>], opts: [log: true, respond: true, validate: false], version: "2.0"}, line: "#L#2.0;imei;paasword;A932\r\n"}
-----------------------------------------------------------------
[2022-04-29 09:30:04.839007Z [32m INFO [0m connected]
%{ip: {172, 25, 78, 153}, port: 33132}
[2022-04-29 09:30:10.149061Z [32m INFO [0m authenticated]
%{buffer: %LiveTrack.Structures.WialonBuffer{auth: #Login<status: "1", body: %{imei: "imei", password: "paasword"}>, messages: [#Login<status: "1", body: %{imei: "imei", password: "paasword"}>], opts: [log: true, respond: true, validate: false], version: "2.0"}, line: "#L#2.0;imei;paasword;A932\r\n"}
-----------------------------------------------------------------
[2022-04-29 09:37:24.908793Z [32m INFO [0m connected]
%{ip: {172, 25, 78, 153}, port: 33140}
[2022-04-29 09:37:29.959437Z [32m INFO [0m authenticated]
%{buffer: %LiveTrack.Structures.WialonBuffer{auth: #Login<status: "1", body: %{imei: "imei", password: "paasword"}>, messages: [#Login<status: "1", body: %{imei: "imei", password: "paasword"}>], opts: [log: true, respond: true, validate: false], version: "2.0"}, line: "#L#2.0;imei;paasword;A932\r\n"}
[2022-04-29 09:37:29.961656Z [33m WARNING [0m error]
Server error

-----------------------------------------------------------------
[2022-04-29 09:38:05.509632Z [32m INFO [0m connected]
%{ip: {172, 25, 78, 153}, port: 33148}
[2022-04-29 09:38:11.780100Z [32m INFO [0m authenticated]
%{buffer: %LiveTrack.Structures.WialonBuffer{auth: #Login<status: "1", body: %{imei: "imei", password: "paasword"}>, messages: [#Login<status: "1", body: %{imei: "imei", password: "paasword"}>], opts: [log: true, respond: true, validate: false], version: "2.0"}, line: "#L#2.0;imei;paasword;A932\r\n"}
[2022-04-29 09:38:11.787056Z [33m WARNING [0m error]
Server error

-----------------------------------------------------------------
[2022-04-29 09:39:59.476590Z [32m INFO [0m connected]
%{ip: {172, 25, 78, 153}, port: 33158}
[2022-04-29 09:40:03.658517Z [32m INFO [0m authenticated]
%{buffer: %LiveTrack.Structures.WialonBuffer{auth: #Login<status: "1", body: %{imei: "imei", password: "paasword"}>, messages: [#Login<status: "1", body: %{imei: "imei", password: "paasword"}>], opts: [log: true, respond: true, validate: false], version: "2.0"}, line: "#L#2.0;imei;paasword;A932\r\n"}
